{
  "type": "object",
  "additionalProperties": false,
  "properties": {
    "max": {
      "type": "integer"
    },
    "value": {
      "type": "integer"
    }
  },
  "required": ["max", "value"]
}
