{
  "label": "ヴィークル",
  "mapping": {},
  "entries": {
    "AeroCop": {
      "name": "エアロコップ",
      "description": "<p>AV4 type Aerodyne. Police version.</p>\n<p>Full stats can be found on page 61.</p>"
    },
    "AeroVox": {
      "name": "エアロヴォクス",
      "description": "<p>AV4 type Aerodyne. Civilian version.</p>\n<p>Full stats can be found on page 61.</p>"
    },
    "Badger Corporate Bus": {
      "name": "バジャー・コーポレートバス",
      "description": "<p>A luxurious bus for corporate road trips. Equally ell equipped for work meetings and after meeting drinks.</p>\n<p>Full details can be found on page 80.</p>"
    },
    "Bellhop": {
      "name": "ベルホップ",
      "description": "<p>A one seat Gyrocopter which can be folded to the size of a large suitcase.</p>\n<p>Full stats can be found on page 60.</p>"
    },
    "Chupacabra": {
      "name": "チュパカブラ",
      "description": "<p>Compact Groundcar built from recycled parts from older vehicles. Low-tech but high-horse-power.</p>\n<p>Full details can be found on page 66.</p>"
    },
    "Destination": {
      "name": "デスティネーション",
      "description": "<p>AV4 style Aerodyne, civilian model.</p>\n<p>Full stats can be found on page 62.</p>"
    },
    "Ebi": {
      "name": "エビ",
      "description": "<p>Small but well thought out Compact Groundcar.</p>\n<p>Full details can be found on page 72.</p>"
    },
    "EconoCompact": {
      "name": "エコノコンパクト",
      "description": "<p>Small and low-cost Compact Groundcar.</p>\n<p>Full details can be found on page 64.</p>"
    },
    "Family Star Van": {
      "name": "ファミリー・スター・バン",
      "description": "<p>Comfortable family Compact Groundcar.</p>\n<p>Full details can be found on page 65.</p>"
    },
    "Gorgon Security Van": {
      "name": "ゴルゴン・セキュリティ・バン",
      "description": "<p>A monster of an armored van.</p>\n<p>Full details can be found on page 73.</p>"
    },
    "Grundy": {
      "name": "グランディ",
      "description": "<p>Armored industrial looking Compact Grouncar, with a powerful combat plow.</p>\n<p>Full details can be found on page 68.</p>"
    },
    "Harriet 100": {
      "name": "ハリエット100",
      "description": "<p>A classic Roadbike with a more feminine look.</p>\n<p>Full details can be found on page 69.</p>"
    },
    "Harvey 100": {
      "name": "ハーヴェイ100",
      "description": "<p>A classic Roadbike.</p>\n<p>Full details can be found on page 69.</p>"
    },
    "Harvey Merc": {
      "name": "ハーヴェイ・マーク",
      "description": "<p>A classic roadbike, this time with mounted weapons.</p>\n<p>Full details can be found on page 69.</p>"
    },
    "Herakles": {
      "name": "ヘラクレス",
      "description": "<p>AV4 type troop transport, armored and armed.</p>\n<p>Full stats can be found on page 63.</p>"
    },
    "Highway Master Artemis": {
      "name": "ハイウェイマスター・アルテミス",
      "description": "<p>A low-riding Roadbike with retractable glass cover. Has a surpercharge mode that doesn't come with a safety guarantee.</p>\n<p>Full details can be found on page 70.</p>"
    },
    "JetBoy Hoverboard": {
      "name": "ジェットボーイ・ホバーボード",
      "description": "<p>A hoverboard driven with Athletics Skill. Can't be upgraded.</p>\n<p>Full details can be found on page 78.</p>"
    },
    "MegaHauler": {
      "name": "メガホーラー",
      "description": "<p>Armored truck transport. As much a train as a car.</p>\n<p>Full details can be found on page 79.</p>"
    },
    "Molly 1K": {
      "name": "モリ―1K",
      "description": "<p>Off-road Compact Groundcar.</p>\n<p>Full details can be found on page 82.</p>"
    },
    "Paladin 500": {
      "name": "パラディン500",
      "description": "<p>A High Performance Groundcar. Now you can be MadMax. In town. With two mounted Machine Guns.</p>\n<p>Full details can be found on page 75.</p>"
    },
    "Parallax Cybercycle": {
      "name": "パララックス・サイバーサイクル™",
      "description": "<p>Top of the line Superbike.</p>\n<p>Full details can be found on page 83.</p>"
    },
    "Range Trike": {
      "name": "レンジ・トライク",
      "description": "<p>Three wheeled Roadbike.</p>\n<p>Full details can be found on page 67.</p>"
    },
    "SH-45 Patroller Law": {
      "name": "SH-45 パトローラー・ロー",
      "description": "<p>One seat Gyrocopter. Police version, with mounted Machine Gun.</p>\n<p>Full stats can be found on page 58.</p>"
    },
    "SH-45 Patroller": {
      "name": "SH-45 パトローラー",
      "description": "<p>One seat Gyrocopter. Civilian version.</p>\n<p>Full stats can be found on page 58.</p>"
    },
    "Sliver": {
      "name": "スリヴァー",
      "description": "<p>A Roadbike with all the gadgets you'd ever need.</p>\n<p>Full details can be found on page 84.</p>"
    },
    "Street King Combat Vehicle": {
      "name": "ストリーㇳキング・コンバットヴィークル",
      "description": "<p>A High Performance Groundcar which is large, armored and has a military look.</p>\n<p>Full details can be found on page 77.</p>"
    },
    "TDT 004": {
      "name": "TDT 004",
      "description": "<p>Troop transport Helicopter.</p>\n<p>Full details can be found on page 59.</p>"
    },
    "The Zacatzontli Pickup Truck": {
      "name": "ザカツォントリ・ピックアップ・トラック",
      "description": "<p>A Compact Groundcar equipped for off-road travel.</p>\n<p>Full details can be found on page 74.</p>"
    },
    "Thunder-X": {
      "name": "サンダーX",
      "description": "<p>A top of the line High Performance Groundcar.</p>\n<p>Full details can be found on page 76.</p>"
    },
    "Volkhov": {
      "name": "ヴォルホフ",
      "description": "<p>An armored pickup Compact Groundcar with mounted machine gun. Combes with a bottle of vodka.</p>\n<p>Full details can be found on page 71.</p>"
    },
    "Yang's Wheels Rickshaw": {
      "name": "ヤンズ・ホイールズ・リキシャ",
      "description": "<p>Roadbike with attached trailer for passengers.</p>\n<p>Full details can be found on page 81.</p>"
    }
  }
}