{
  "label": "特殊武器",
  "mapping": {
    "dvTable": "system.dvTable"
  },
  "entries": {
    "Avenger": {
      "name": "アヴェンジャー",
      "description": "<p>A concealable, medium-sized pistol. +1 to Attack.</p>",
      "dvTable": "DV 拳銃"
    },
    "Bearcat": {
      "name": "ベアキャット",
      "description": "<p>A collapsible bow branded with the Eagletech logo, reloaded as part of an Attack action.</p>\n<p>+1 to Attack check.</p>",
      "dvTable": "DV 弓とクロスボウ"
    },
    "Boomer Buster": {
      "name": "ブーマー・バスター",
      "description": "<p>A very heavy pistol. It can't be concealed. +1 to Attack.</p>",
      "dvTable": "DV 拳銃"
    },
    "Bulldog": {
      "name": "ブルドッグ",
      "description": "<p>An all-purpose shotgun. +1 to Attack.</p>",
      "dvTable": "DV ショットガン (スラッグ弾)"
    },
    "City Reaper": {
      "name": "シティ・リーパー",
      "description": "<p>A heavy SMG. Due to its size it can't be concealed.  If you roll 1 on Attack (Crit fail) the gun jams and requires using an action to clear. </p>",
      "dvTable": "DV SMG"
    },
    "Cityhunter": {
      "name": "シティハンター",
      "description": "<p>A concealable, heavy pistol. +1 to Attack.</p>",
      "dvTable": "DV 拳銃"
    },
    "Dragon": {
      "name": "ドラゴン",
      "description": "<p>A standard-issue assault rifle. +1 to Attack.</p>",
      "dvTable": "DV アサルトライフル"
    },
    "Home Defender": {
      "name": "ホーム・ディフェンダー",
      "description": "<p>An all-purpose shotgun.  If you roll 1 on Attack (Crit fail) the gun jams and requires using an action to clear. </p>",
      "dvTable": "DV ショットガン (スラッグ弾)"
    },
    "Hotshot": {
      "name": "ホットショット",
      "description": "<p>Bring out the big guns. This rocket launcher will do some damage. +1 to Attack.</p>",
      "dvTable": "DV ロケットランチャー"
    },
    "Hunter": {
      "name": "ハンター",
      "description": "<p>A poor quality crossbow branded with the GunMart logo, reloaded as part of an Attack action.</p> <p>If you roll 1 on Attack (Crit fail) the weapon jams and requires using an action to clear.</p>",
      "dvTable": "DV 弓とクロスボウ"
    },
    "Jungle Reaper": {
      "name": "ジャングル・リーパー",
      "description": "<p>A standard-issue assault rifle.  If you roll 1 on Attack (Crit fail) the gun jams and requires using an action to clear. </p>",
      "dvTable": "DV アサルトライフル"
    },
    "Long Rifle": {
      "name": "ロング・ライフル",
      "description": "<p>A long-distance sniper rifle. Holds 4 bullets in a magazine. </p>",
      "dvTable": "DV スナイパーライフル"
    },
    "Magnum": {
      "name": "マグナム",
      "description": "<p>A concealable, heavy pistol.  If you roll 1 on Attack (Crit fail) the gun jams and requires using an action to clear. </p>",
      "dvTable": "DV 拳銃"
    },
    "Mark III": {
      "name": "マーク III",
      "description": "<p>A concealable, heavy pistol. </p>",
      "dvTable": "DV 拳銃"
    },
    "Minami 10": {
      "name": "ミナミ10",
      "description": "<p>A concealable SMG. +1 to Attack.</p>",
      "dvTable": "DV SMG"
    },
    "Mini-Gat": {
      "name": "ミニガット",
      "description": "<p>A concealable SMG. </p>",
      "dvTable": "DV SMG"
    },
    "Mini-Grenade": {
      "name": "ミニグレネード",
      "description": "<p>A high-impact grenade launcher. You can use a variety of grenades with this. </p>",
      "dvTable": "DV グレネードランチャー"
    },
    "P-35": {
      "name": "P-35",
      "description": "<p>A very heavy pistol. It can't be concealed. </p>",
      "dvTable": "DV 拳銃"
    },
    "Rapid Assault": {
      "name": "ラピッド・アサルト",
      "description": "<p>An all-purpose shotgun. </p>",
      "dvTable": "DV ショットガン (スラッグ弾)"
    },
    "Ronin": {
      "name": "ローニン",
      "description": "<p>A standard-issue assault rifle. </p>",
      "dvTable": "DV アサルトライフル"
    },
    "Scorpion": {
      "name": "スコーピオン",
      "description": "<p>A sleek crossbow branded with the Eagletech logo, reloaded as part of an Attack action.</p>\n<p>+1 to Attack check.</p>",
      "dvTable": "DV 弓とクロスボウ"
    },
    "Sherwood": {
      "name": "シャーウッド",
      "description": "<p>A poor quality bow branded with the GunMart logo, reloaded as part of an Attack action.</p> <p>If you roll 1 on Attack (Crit fail) the weapon jams and requires using an action to clear. </p>",
      "dvTable": "DV 弓とクロスボウ"
    },
    "SMG-21": {
      "name": "SMG-21",
      "description": "<p>A heavy SMG. Due to its size it can't be concealed. </p>",
      "dvTable": "DV SMG"
    },
    "Snipe-Star": {
      "name": "スナイパースター",
      "description": "<p>A long-distance sniper rifle. Holds 4 bullets in a magazine.  If you roll 1 on Attack (Crit fail) the gun jams and requires using an action to clear. </p>",
      "dvTable": "DV スナイパーライフル"
    },
    "Streetmaster": {
      "name": "ストリートマスター",
      "description": "<p>A concealable, medium-sized pistol. If you roll 1 on Attack (Crit fail) the gun jams and requires using an action to clear. </p>",
      "dvTable": "DV 拳銃"
    },
    "Striker": {
      "name": "ストライカー",
      "description": "<p>A crossbow branded with the Eagletech logo, reloaded as part of an Attack action.</p>",
      "dvTable": "DV 弓とクロスボウ"
    },
    "Super Chief": {
      "name": "スーパーシェフ",
      "description": "<p>A very heavy pistol. It can't be concealed.  If you roll 1 on Attack (Crit fail) the gun jams and requires using an action to clear. </p>",
      "dvTable": "DV 拳銃"
    },
    "Tech-Assault III": {
      "name": "テクアサルトⅢ",
      "description": "<p>A concealable SMG.  If you roll 1 on Attack (Crit fail) the gun jams and requires using an action to clear. </p>",
      "dvTable": "DV SMG"
    },
    "Tomcat": {
      "name": "トムキャット",
      "description": "<p>A revitalized bow branded with the Eagletech logo, reloaded as part of an Attack Action.</p>",
      "dvTable": "DV 弓とクロスボウ"
    },
    "Type-18": {
      "name": "タイプ18",
      "description": "<p>A high-impact grenade launcher. You can use a variety of grenades with this. +1 to Attack.</p>",
      "dvTable": "DV グレネードランチャー"
    },
    "Type-G": {
      "name": "タイプG",
      "description": "<p>A high-impact grenade launcher. You can use a variety of grenades with this.  If you roll 1 on Attack (Crit fail) the gun jams and requires using an action to clear. </p>",
      "dvTable": "DV グレネードランチャー"
    },
    "Type-R": {
      "name": "タイプR",
      "description": "<p>Bring out the big guns. This rocket launcher will do some damage.  If you roll 1 on Attack (Crit fail) the gun jams and requires using an action to clear. </p>",
      "dvTable": "DV ロケットランチャー"
    },
    "Urban": {
      "name": "アーバン",
      "description": "<p>Bring out the big guns. This rocket launcher will do some damage. </p>",
      "dvTable": "DV ロケットランチャー"
    },
    "Viper": {
      "name": "ヴァイパー",
      "description": "<p>A heavy SMG. Due to its size it can't be concealed. +1 to Attack.</p>",
      "dvTable": "DV SMG"
    },
    "WSSA Sniper System": {
      "name": "WSSAスナイパー・システム",
      "description": "<p>A long-distance sniper rifle. Holds 4 bullets in a magazine. +1 to Attack.</p>",
      "dvTable": "DV スナイパーライフル"
    },
    "X-9mm": {
      "name": "X-9mm",
      "description": "<p>A concealable, medium-sized pistol. </p>",
      "dvTable": "DV 拳銃"
    }
  }
}