{
  "label": "Снаряжение",
  "mapping": {},
  "entries": {
    "MechaMan Smart Glove": {
      "name": "Умная перчатка «Мехамэн»",
      "description": "<p>Мотоциклетная перчатка с предустановленным подкожным хватом*, для использования которого нужна нейронная связь. Один дополнительый слот расширений киберруки. Пока перчатка надета, оасширения, установленные в Киберрку или мясную руку, нелья использовать. <br /><em>*Подкожный хват необходимо добавить вручную после получения брони, по сути он занимает слот расширений.</em></p>"
    },
    "AirWell 50": {
      "name": "Конденсационный колодец 50",
      "description": "<p>Производит воду в количестве, достаточном для одного человека.</p>"
    },
    "Banshee Microphone": {
      "name": "Микрофон «Банши»",
      "description": "<p>Беспроводной микрофон с наушником. Даёт носящему бонус +2 к проверкам игры на инструменте (пение). Бонус не суммируется.</p>"
    },
    "ChipVault": {
      "name": "Щепкохранилище",
      "description": "<p>Вмещает в себя до восьми щепок. Хранящиеся внутри щепки неуязвимы к ЭМИ.</p>"
    },
    "CO2 Tank": {
      "name": "Баллон CO₂",
      "description": "<p>Баллон с CO<sub>2</sub>, предназначенный для использования с бронёй «Воздушный наездник» от Масетто. После каждого использования требуется замена.</p>"
    },
    "Doberman 500": {
      "name": "Доберман 500",
      "description": "<p>Дрон для личного пользователя в виде собаки, который можно подключить к агенту.</p>"
    },
    "Drink Master 3000": {
      "name": "Мастер напитков 3000",
      "description": "<p>Можно приготовить десять напитков из каталога «Мастера напитков 3000» за одну заправку. Может приготовить Смэш.</p>"
    },
    "EL-F4-NT Linear Frame": {
      "name": "Прямоходный остов EL-F4-NT",
      "description": "<p>Экзоскелет.</p>\n<ul>\n<li>Поднимает ТЕЛ до 12 пока подключён.</li>\n<li>ПЗ и испытание против смерти остаются неизменными.</li>\n<li>В комплекте предустановленные техтулы.</li>\n</ul>"
    },
    "Fūma Kotarō Linear Frame": {
      "name": "Прямоходный остов «Фума Котаро»",
      "description": "<p>Экзоскелет.</p>\n<ul>\n<li>Требуется два разъёма интерфейса</li>\n<li>Поднимает ТЕЛ до 12 пока подключён</li>\n<li>ПЗ и испытание против смерти остаются неизменными</li>\n<li>+2 к скрытности.</li>\n<li>Для того, чтобы извлечь и убрать встроенное оружия остова, не требуется действие.</li>\n<li>Для того, чтобы скрыть встроенное оружие остова, не требуется проверка сокрытия</li>\n<li><p>У остова есть два варианта оснащения*.</p>\n<ul>\n<li>Две единицы экзотического тяжёлого оружия ближнего боя отличного качества</li>\n<li>Одна единица экзотического лёгкого оружия ближнего боя отличного качества и одна единица экзотического очень тяжёлого оружия ближнего боя отличного качества.</li>\n</ul>\n</li>\n</ul>\n<p><em>* Необходимо добавить вручную.</em></p>"
    },
    "Jeeves Executive Garment Bag": {
      "name": "Мешок для одежды «Камердинер»",
      "description": "<p>Мешок, способный починить один предмет одежды или брони за раз.</p>"
    },
    "Laser Light Electric Guitar": {
      "name": "Электрическая гитара",
      "description": "<p>Электрическая гитара, которая даёт играющему бонус +1 к проверкам игры на инструменте (гитара). Так же гитара считается за одну установку светотату.</p>"
    },
    "LF-001 SWAT Linear Frame": {
      "name": "Прямоходный остов SWAT ПО-001",
      "description": "<p>Экзоскелет.</p>\n<ul>\n<li>Требуется два разъёма интерфейса.</li>\n<li>Поднимает ТЕЛ до 12 пока подключён.</li>\n<li>ПЗ и испытание против смерти остаются неизменными.</li>\n<li>Нет штрафа к движению во время лазанья и плаванья.</li>\n</ul>"
    },
    "Mr. Biscuit Multi-Food Processor": {
      "name": "Мультипищевой комбайн «Мистер Хрустик»",
      "description": "<p>Может прокормить до десяти человек, находящихся на Окраине.</p>"
    },
    "Nitro Ultra9": {
      "name": "Нитро Ультра9",
      "description": "<p>Действием можно залить в топливный бак транспортного средства чтобы его наполнить. Даёт бонусы к скорости в ущерб безопасности.</p>"
    },
    "One Touch Habitat": {
      "name": "Жилище в одно касание",
      "description": "<p>Защищает от воздействия окружающей среды. Считается за сон в дикой местности или сон на улице.</p>"
    },
    "Porta-Printer": {
      "name": "Порта-принтер",
      "description": "<p>Миниатюрная мастерская. Позволяет техника использовать навыки «Мастер улучшений» и «Мастер изготовления» в любых условиях при наличии необходимы инструментов.</p>"
    },
    "RapiDeploy Sheath": {
      "name": "Быстродейственная кобура",
      "description": "<p>Даёт бонус +2 к проверкам навыка «Скрыть/обнаружить предмет» для скрытия оружия, которое можно скрыть.</p>"
    },
    "Shower•in•a•Can": {
      "name": "Душ•в•банке",
      "description": "<p>Аэрозольный дезодорант. Избавляет от бактерий и запаха. Одно использование на банку.</p>"
    },
    "Sonic Boom Amp": {
      "name": "Усилитель «Звуковой удар»",
      "description": "<p>Подключив к нему инструмент, пользователь может действием заставить всех присутствующих пройти проверку сопротивления пыткам/наркотикам.</p>"
    },
    "SovOil Industrial Lubricant": {
      "name": "Промышленная смазка",
      "description": "<p>Смазка, которой хватит надолго.</p>"
    },
    "SovOil Medical Lubricant": {
      "name": "Медицинская смазка",
      "description": "<p>Смазка, которой хватит надолго.</p>"
    },
    "SovOil Personal Lubricant": {
      "name": "Личная смазка",
      "description": "<p>Смазка, которой хватит надолго.</p>"
    },
    "Streetcase": {
      "name": "Уличный чемоданчик",
      "description": "<p>Позволяет носить с собой множество небольших предметов, которые ТЕБЕ нужно держать в сохранности.</p>"
    },
    "Triti-Fizz": {
      "name": "Трити-физз",
      "description": "<p>Прохладительный напиток №1 в Северной Америке.</p>"
    },
    "Typhoid Speaker": {
      "name": "Колонка «Тиф»",
      "description": "<p>При подключении к усилителю «Звуковой удар» от КиллСторм, СЛ проверки сопротивления пыткам/наркотикам увеличивается.</p>"
    },
    "Universal Aqualung": {
      "name": "Универсальный акваланг",
      "description": "<p>С ним можно дышать под водой, находясь на глубине не более 10 м/ярд.</p>"
    },
    "Vermilion Linear Frame": {
      "name": "Прямоходный остов «Киноварь»",
      "description": "<p>Экзоскелет.</p>\n<ul>\n<li>Требуется два разъёма интерфейса.</li>\n<li>Поднимает ТЕЛ до 12 пока подключён.</li>\n<li>ПЗ и испытание против смерти остаются неизменными.</li>\n<li>Нет штрафа к движению во время прыжков.</li>\n<li>Считается, что установлена пара ступней-роликов.</li>\n</ul>"
    },
    "WorldSat Aerial Sphere": {
      "name": "Антенная сфера",
      "description": "<p>После развёртывания обеспечивает доступ к Ситинету на расстоянии до 50 миль (80 км) от города или другой антенной сферы, подключённой к Ситинету.</p>"
    }
  }
}