{
  "description": "The image for an item",
  "type": "string",
  "enum": [
    "",
    "AmeriCar",
    "Arasaka",
    "Biotechnica",
    "Bodyweight",
    "Brennan Cycles",
    "Budget Arms",
    "Centurian Essentials",
    "Chadran Arms",
    "Concept Mechanics",
    "Constitutional Arms",
    "Continental Brands",
    "Cybermatrix",
    "Cyclops International",
    "DPI",
    "Dai Lung",
    "Dayton Aeronautics",
    "Diego Motors",
    "Dynalar Technologies",
    "Eagletech",
    "E-TACK",
    "Everest VentureWare",
    "Faisal Customs",
    "Federated Arms",
    "Fire Brand",
    "Gambler Workshop",
    "Georgia Arms",
    "Gibson Battlegear",
    "Great Lakes Cutlery",
    "Grundy Salvage International",
    "GunMart",
    "Hammered Industries",
    "Hydrosubsidium Inc.",
    "IMI",
    "Kaukaz",
    "Kendachi",
    "Kendashi",
    "KillStrom Music",
    "Kirama",
    "Kiroshi Optics",
    "KTech",
    "Laser Light",
    "Lead",
    "Lotos Designs",
    "Magnum Opus",
    "Makigai",
    "Malorian Arms",
    "Masetto Tech Clothing",
    "MetaCorp",
    "Microtech",
    "Midnight Arms",
    "Militech",
    "Montage",
    "Mustang Arms",
    "NCPD",
    "Nova Arms",
    "Nu-Tek",
    "Optitech",
    "Ortiz Automotives",
    "Petrochem",
    "Polska CyberTechnologies",
    "Psiberstuff",
    "Pursuit Security Inc.",
    "Quadra",
    "Radline Laboratories",
    "Raven Microcybernetics",
    "Rhinemetall",
    "Rocklin Augmentics",
    "Rostović",
    "Sanroo",
    "SecSystems",
    "Segotari",
    "SGI Technologies",
    "SkidRow LTD",
    "Slamdance Inc.",
    "SovOil",
    "Sternmeyer",
    "Stolbovoy",
    "Sycust",
    "Tanson Group",
    "Techtronika Russia",
    "Telectronics",
    "TetraCorp America",
    "Tokyo Dynamics",
    "Torrell and Chiang",
    "Towa Manufacturing",
    "Trauma Team North America",
    "Tsunami Arms",
    "Turbo Neon Motors",
    "UrbanTech",
    "WorldSat",
    "Wyzard Technologies",
    "Yang's Wheels LTD",
    "Zetatech",
    "Zhirafa",
    "Zhukova International",
    "Ziggurat",
    "Zonda"
  ]
}
